…
### Tidy data

``` r
zip_file = 
  unnest(zip_file) %>%
  separate(file_name, into =c("arm", "id"), sep = "_") %>%
  separate(id, into =c("id", "other"), sep = ".csv") %>%
  gather(key = week, value = observation, week_1:week_8) %>%
  separate(week, into = c("rm", "week"), sep = "_") %>%
  select(-other, -rm )

zip_file
```

    ## # A tibble: 160 x 4
    ##    arm   id    week  observation
    ##    <chr> <chr> <chr>       <dbl>
    ##  1 con   01    1            0.2 
    ##  2 con   02    1            1.13
    ##  3 con   03    1            1.77
    ##  4 con   04    1            1.04
    ##  5 con   05    1            0.47
    ##  6 con   06    1            2.37
    ##  7 con   07    1            0.03
    ##  8 con   08    1           -0.08
    ##  9 con   09    1            0.08
    ## 10 con   10    1            2.14
    ## # ... with 150 more rows
…
